[
  {
    "name": "北京PK拾",
    "url": "https://kj.cjcp.com.cn/gaopin/bjpk10/index.php"
  },
  {
    "name": "北京快乐8",
    "url": "https://kj.cjcp.com.cn/gaopin/kl8/index.php"
  },
  {
    "name": "北京快中彩",
    "url": "https://kj.cjcp.com.cn/gaopin/bjkzc/index.php"
  },
  {
    "name": "河南幸运彩",
    "url": "https://kj.cjcp.com.cn/gaopin/hnxyc/index.php"
  },
  {
    "name": "河南泳坛夺金",
    "url": "https://kj.cjcp.com.cn/gaopin/hnytdj/index.php"
  },
  {
    "name": "湖南幸运赛车",
    "url": "https://kj.cjcp.com.cn/gaopin/hnxysc/index.php"
  },
  {
    "name": "辽宁快乐12",
    "url": "https://kj.cjcp.com.cn/gaopin/ln12x5/index.php"
  },
  {
    "name": "山东快乐扑克3",
    "url": "https://kj.cjcp.com.cn/gaopin/sdklpk3/index.php"
  },
  {
    "name": "山东群英会",
    "url": "https://kj.cjcp.com.cn/gaopin/sdqyh/index.php"
  },
  {
    "name": "山西泳坛夺金",
    "url": "https://kj.cjcp.com.cn/gaopin/sxytdj/index.php"
  },
  {
    "name": "上海时时乐",
    "url": "https://kj.cjcp.com.cn/gaopin/ssl/index.php"
  },
  {
    "name": "四川金七乐",
    "url": "https://kj.cjcp.com.cn/gaopin/scjql/index.php"
  },
  {
    "name": "四川12选5",
    "url": "https://kj.cjcp.com.cn/gaopin/sc12x5/index.php"
  },
  {
    "name": "新疆喜乐彩",
    "url": "https://kj.cjcp.com.cn/gaopin/xjxlc/index.php"
  },
  {
    "name": "浙江快乐彩",
    "url": "https://kj.cjcp.com.cn/gaopin/zj12x5/index.php"
  },
  {
    "name": "重庆百变王牌",
    "url": "https://kj.cjcp.com.cn/gaopin/cqbbwp/index.php"
  }
]